<?xml version="1.0" encoding="UTF-8"?>
<!DOCTYPE svg PUBLIC "-//W3C//DTD SVG 1.1//EN" "http://www.w3.org/Graphics/SVG/1.1/DTD/svg11.dtd">
<!-- Creator: CorelDRAW X7 -->
<svg xmlns="http://www.w3.org/2000/svg" xml:space="preserve" width="63px" height="63px" version="1.1" style="shape-rendering:geometricPrecision; text-rendering:geometricPrecision; image-rendering:optimizeQuality; fill-rule:evenodd; clip-rule:evenodd"
viewBox="0 0 3929 3929"
 xmlns:xlink="http://www.w3.org/1999/xlink">
 <defs>
  <style type="text/css">
   <![CDATA[
    .fil0 {fill:none}
    .fil1 {fill:white}
   ]]>
  </style>
 </defs>
 <g id="Layer_x0020_1">
  <metadata id="CorelCorpID_0Corel-Layer"/>
  <rect class="fil0" width="3929" height="3929"/>
 </g>
 <g id="icon">
  <metadata id="CorelCorpID_1Corel-Layer"/>
  <path class="fil1" d="M88 2074l-3 -2c-59,-59 -59,-155 0,-214l3 -3 1315 -1315c59,-59 155,-59 214,0 59,59 59,155 0,214l-1054 1054 -6 5 242 0 2938 0c84,0 152,68 152,152 0,83 -68,151 -152,151l-3180 0 1060 1059c59,59 59,155 0,214 -59,59 -155,59 -214,0l-1315 -1315z"/>
 </g>
</svg>
