<?xml version="1.0" encoding="UTF-8"?>
<!DOCTYPE svg PUBLIC "-//W3C//DTD SVG 1.1//EN" "http://www.w3.org/Graphics/SVG/1.1/DTD/svg11.dtd">
<!-- Creator: CorelDRAW X7 -->
<svg xmlns="http://www.w3.org/2000/svg" xml:space="preserve" width="63px" height="63px" version="1.1" style="shape-rendering:geometricPrecision; text-rendering:geometricPrecision; image-rendering:optimizeQuality; fill-rule:evenodd; clip-rule:evenodd"
viewBox="0 0 3856 3856"
 xmlns:xlink="http://www.w3.org/1999/xlink">
 <defs>
  <style type="text/css">
   <![CDATA[
    .fil0 {fill:none}
    .fil1 {fill:black;fill-rule:nonzero}
   ]]>
  </style>
 </defs>
 <g id="Layer_x0020_1">
  <metadata id="CorelCorpID_0Corel-Layer"/>
  <rect class="fil0" width="3856" height="3856"/>
 </g>
 <g id="icon">
  <metadata id="CorelCorpID_1Corel-Layer"/>
  <path class="fil1" d="M2036 2677l-3 3c-58,58 -152,58 -210,0l-3 -3 -1290 -1290c-58,-58 -58,-153 0,-211 58,-57 152,-57 210,0l1188 1189 1188 -1189c58,-57 153,-57 210,0 58,58 58,153 0,211l-1290 1290z"/>
 </g>
</svg>
