<?xml version="1.0" encoding="UTF-8"?>
<!DOCTYPE svg PUBLIC "-//W3C//DTD SVG 1.1//EN" "http://www.w3.org/Graphics/SVG/1.1/DTD/svg11.dtd">
<!-- Creator: CorelDRAW X7 -->
<svg xmlns="http://www.w3.org/2000/svg" xml:space="preserve" width="63px" height="63px" version="1.1" style="shape-rendering:geometricPrecision; text-rendering:geometricPrecision; image-rendering:optimizeQuality; fill-rule:evenodd; clip-rule:evenodd"
viewBox="0 0 4086 4086"
 xmlns:xlink="http://www.w3.org/1999/xlink">
 <defs>
  <style type="text/css">
   <![CDATA[
    .fil0 {fill:none}
    .fil1 {fill:#F30056}
   ]]>
  </style>
 </defs>
 <g id="Layer_x0020_1">
  <metadata id="CorelCorpID_0Corel-Layer"/>
  <rect class="fil0" width="4086" height="4086"/>
 </g>
 <g id="icon">
  <metadata id="CorelCorpID_1Corel-Layer"/>
  <path class="fil1" d="M2720 1144c61,-62 161,-62 223,0 30,30 46,71 46,111l-2 20c-4,33 -19,66 -44,91l-677 677 677 677c26,26 41,60 45,94l1 17c0,41 -16,81 -46,112 -62,61 -162,61 -223,0l-677 -677 -677 677c-61,61 -161,61 -222,0 -62,-62 -62,-162 0,-223l677 -677 -677 -677c-62,-61 -62,-161 0,-222 61,-62 161,-62 222,0l677 677 677 -677z"/>
 </g>
</svg>
