<?xml version="1.0" encoding="UTF-8"?>
<!DOCTYPE svg PUBLIC "-//W3C//DTD SVG 1.1//EN" "http://www.w3.org/Graphics/SVG/1.1/DTD/svg11.dtd">
<!-- Creator: CorelDRAW X7 -->
<svg xmlns="http://www.w3.org/2000/svg" xml:space="preserve" width="71px" height="71px" version="1.1" style="shape-rendering:geometricPrecision; text-rendering:geometricPrecision; image-rendering:optimizeQuality; fill-rule:evenodd; clip-rule:evenodd"
viewBox="0 0 4896 4896"
 xmlns:xlink="http://www.w3.org/1999/xlink">
 <defs>
  <style type="text/css">
   <![CDATA[
    .fil0 {fill:none}
    .fil2 {fill:#E6E6E6}
    .fil1 {fill:gray;fill-rule:nonzero}
   ]]>
  </style>
 </defs>
 <g id="Layer_x0020_1">
  <metadata id="CorelCorpID_0Corel-Layer"/>
  <rect class="fil0" width="4896" height="4896"/>
 </g>
 <g id="icon">
  <metadata id="CorelCorpID_1Corel-Layer"/>
  <path class="fil1" d="M914 678l913 0c99,0 189,40 253,105 8,7 15,15 21,23 53,62 85,143 85,230l0 913c0,98 -41,188 -106,253 -64,65 -154,105 -253,105l-913 0c-98,0 -188,-41 -252,-106l-1 1c-64,-65 -105,-155 -105,-253l0 -913c0,-98 41,-188 105,-252l1 -1 5 -5c64,-62 152,-100 247,-100zm789 482l-664 0 0 665 664 0 0 -665z"/>
  <rect class="fil2" x="797" y="919" width="1147" height="1147" rx="117" ry="117"/>
  <path class="fil1" d="M914 2703l913 0c99,0 189,40 253,105 8,8 15,15 21,24 53,62 85,142 85,229l0 913c0,98 -41,188 -106,253 -64,65 -154,105 -253,105l-913 0c-98,0 -188,-40 -252,-105l-1 0c-64,-65 -105,-155 -105,-253l0 -913c0,-98 41,-187 105,-252l1 -1 5 -4c64,-62 152,-101 247,-101zm789 482l-664 0 0 665 664 0 0 -665z"/>
  <rect class="fil2" x="797" y="2944" width="1147" height="1147" rx="117" ry="117"/>
  <path class="fil1" d="M3718 675l521 521 1 0 0 0 1 0c8,9 15,17 22,26 50,62 76,138 76,213 0,86 -33,172 -98,238l-1 0 0 0 1 1 -1 0 -12 11 -522 522 0 0 0 1c-66,66 -153,99 -239,99 -86,0 -173,-33 -239,-99l-11 -12 -522 -523 -1 1 0 0c-65,-65 -99,-152 -99,-239 0,-86 34,-172 99,-238l1 0 -1 -1 0 0 13 -12 522 -522 0 0 0 0c66,-66 153,-99 238,-99 86,0 173,33 239,99l0 0 12 13zm80 760l-331 -331 -330 331 330 331 331 -331z"/>
  <rect class="fil2" transform="matrix(0.925549 0.925549 -0.925549 0.925549 3467.34 764.15)" width="725" height="725" rx="74" ry="74"/>
  <path class="fil1" d="M2954 2703l913 0c98,0 188,40 253,105 7,8 14,15 20,24 53,62 85,142 85,229l0 913c0,98 -40,188 -105,253 -65,65 -155,105 -253,105l-913 0c-99,0 -188,-40 -253,-105l0 0c-65,-65 -105,-155 -105,-253l0 -913c0,-98 40,-187 105,-252l1 -1 4 -4c64,-62 152,-101 248,-101zm789 482l-665 0 0 665 665 0 0 -665z"/>
  <rect class="fil2" x="2837" y="2944" width="1147" height="1147" rx="117" ry="117"/>
 </g>
</svg>
