<?xml version="1.0" encoding="UTF-8"?>
<!DOCTYPE svg PUBLIC "-//W3C//DTD SVG 1.1//EN" "http://www.w3.org/Graphics/SVG/1.1/DTD/svg11.dtd">
<!-- Creator: CorelDRAW X7 -->
<svg xmlns="http://www.w3.org/2000/svg" xml:space="preserve" width="71px" height="71px" version="1.1" style="shape-rendering:geometricPrecision; text-rendering:geometricPrecision; image-rendering:optimizeQuality; fill-rule:evenodd; clip-rule:evenodd"
viewBox="0 0 4991 4991"
 xmlns:xlink="http://www.w3.org/1999/xlink">
 <defs>
  <style type="text/css">
   <![CDATA[
    .fil0 {fill:none}
    .fil2 {fill:#E6E6E6}
    .fil1 {fill:gray;fill-rule:nonzero}
   ]]>
  </style>
 </defs>
 <g id="Layer_x0020_1">
  <metadata id="CorelCorpID_0Corel-Layer"/>
  <rect class="fil0" width="4991" height="4991"/>
 </g>
 <g id="icon">
  <metadata id="CorelCorpID_1Corel-Layer"/>
  <path class="fil1" d="M2496 3154c557,0 1066,61 1438,160 466,124 754,334 754,603 0,268 -288,479 -754,603 -372,98 -881,160 -1438,160 -557,0 -1067,-62 -1439,-160 -465,-124 -753,-335 -753,-603 0,-269 288,-479 753,-603 372,-99 882,-160 1439,-160zm1313 634c-331,-88 -796,-142 -1313,-142 -518,0 -982,54 -1314,142 -239,64 -387,112 -387,129 0,17 148,65 387,128 332,88 796,143 1314,143 517,0 982,-55 1313,-143 239,-63 387,-111 387,-128 0,-17 -148,-65 -387,-129z"/>
  <ellipse class="fil2" cx="2496" cy="3917" rx="1946" ry="517"/>
  <path class="fil1" d="M2496 311c410,0 782,167 1052,437l0 0c270,269 437,642 437,1053 0,601 -469,1248 -848,1771 -95,130 -183,252 -244,343 -46,68 -106,123 -175,160l0 0c-68,37 -147,56 -230,55 -82,0 -160,-20 -229,-58 -70,-38 -130,-93 -174,-161l-8 -13c-63,-96 -142,-208 -227,-328l-10 -14c-370,-523 -833,-1182 -833,-1755 0,-411 167,-783 436,-1052l0 -1 0 0c269,-270 641,-437 1053,-437zm705 783c-180,-179 -430,-291 -705,-291 -276,0 -525,112 -706,292l0 0c-180,180 -292,430 -292,706 0,422 412,1008 742,1473l9 12c86,122 167,237 238,343l4 6c81,-120 162,-233 248,-351 337,-465 754,-1040 754,-1483 0,-276 -112,-525 -292,-706l0 0 0 -1zm-705 -130c230,0 439,93 590,245l1 0 0 0c151,151 245,360 245,591 0,231 -94,440 -245,592 -151,151 -361,245 -591,245 -231,0 -441,-94 -592,-245l-14 -16c-143,-150 -231,-353 -231,-576 0,-231 94,-440 245,-591 151,-151 361,-245 592,-245zm244 592c-62,-62 -149,-100 -244,-100 -96,0 -182,38 -244,100 -62,63 -101,149 -101,244 0,91 35,174 91,235l10 9c62,62 148,101 244,101 95,0 181,-39 243,-101 62,-62 101,-149 101,-244 0,-95 -38,-181 -100,-244l0 0z"/>
  <path class="fil2" d="M2496 557c686,0 1243,557 1243,1244 0,655 -697,1449 -1049,1978 -46,69 -118,107 -201,106 -82,0 -153,-39 -199,-108 -336,-516 -1038,-1346 -1038,-1976 0,-687 557,-1244 1244,-1244zm0 653c326,0 590,264 590,590 0,327 -264,591 -590,591 -327,0 -591,-264 -591,-591 0,-326 264,-590 591,-590z"/>
 </g>
</svg>
