<?xml version="1.0" encoding="UTF-8"?>
<!DOCTYPE svg PUBLIC "-//W3C//DTD SVG 1.1//EN" "http://www.w3.org/Graphics/SVG/1.1/DTD/svg11.dtd">
<!-- Creator: CorelDRAW X7 -->
<svg xmlns="http://www.w3.org/2000/svg" xml:space="preserve" width="71px" height="71px" version="1.1" style="shape-rendering:geometricPrecision; text-rendering:geometricPrecision; image-rendering:optimizeQuality; fill-rule:evenodd; clip-rule:evenodd"
viewBox="0 0 4804 4804"
 xmlns:xlink="http://www.w3.org/1999/xlink">
 <defs>
  <style type="text/css">
   <![CDATA[
    .fil0 {fill:none}
    .fil1 {fill:#5DCF10}
    .fil2 {fill:#FFF7C3}
    .fil3 {fill:#9B26AF;fill-rule:nonzero}
   ]]>
  </style>
 </defs>
 <g id="Layer_x0020_1">
  <metadata id="CorelCorpID_0Corel-Layer"/>
  <rect class="fil0" width="4804" height="4804"/>
 </g>
 <g id="icon">
  <metadata id="CorelCorpID_1Corel-Layer"/>
  <g id="_960981824">
   <polyline class="fil0" points="261,2181 2402,635 4542,2181 "/>
   <path class="fil1" d="M2746 2530l0 0zm187 -187l0 0zm-1956 1693l0 -2371 -265 190 0 2313 0 132 132 0 895 0 132 0 0 -132 0 -1276c0,-141 58,-269 151,-362 93,-93 221,-150 362,-150 141,0 269,57 362,150 92,93 150,221 150,362l0 1276 0 132 132 0 931 0 132 0 0 -132 0 -2313 -264 -190 0 2371 -666 0 0 -1144c0,-214 -88,-408 -229,-549 -141,-140 -335,-228 -548,-228 -214,0 -409,88 -549,228 -140,141 -228,335 -228,549l0 1144 -630 0z"/>
   <path class="fil2" d="M1835 2343c140,-140 335,-228 549,-228 213,0 407,88 548,228 141,141 229,335 229,549l0 1144 666 0 0 -2209 -1425 -1029 -1425 1029 0 2209 630 0 0 -1144c0,-214 88,-408 228,-549z"/>
   <path class="fil3" d="M338 2288c-59,43 -141,29 -184,-30 -42,-59 -29,-141 30,-184l2141 -1546c47,-33 109,-32 154,0l2140 1546c59,43 73,125 30,184 -42,59 -124,73 -183,30l-2064 -1490 -2064 1490z"/>
  </g>
 </g>
</svg>
