<?xml version="1.0" encoding="UTF-8"?>
<!DOCTYPE svg PUBLIC "-//W3C//DTD SVG 1.1//EN" "http://www.w3.org/Graphics/SVG/1.1/DTD/svg11.dtd">
<!-- Creator: CorelDRAW X7 -->
<svg xmlns="http://www.w3.org/2000/svg" xml:space="preserve" width="71px" height="71px" version="1.1" style="shape-rendering:geometricPrecision; text-rendering:geometricPrecision; image-rendering:optimizeQuality; fill-rule:evenodd; clip-rule:evenodd"
viewBox="0 0 5091 5091"
 xmlns:xlink="http://www.w3.org/1999/xlink">
 <defs>
  <style type="text/css">
   <![CDATA[
    .fil0 {fill:none}
    .fil2 {fill:#FFCBD1}
    .fil1 {fill:#F34236;fill-rule:nonzero}
   ]]>
  </style>
 </defs>
 <g id="Layer_x0020_1">
  <metadata id="CorelCorpID_0Corel-Layer"/>
  <rect class="fil0" width="5091" height="5091"/>
 </g>
 <g id="icon">
  <metadata id="CorelCorpID_1Corel-Layer"/>
  <path class="fil1" d="M2363 355c152,124 1164,983 663,1548 -171,193 -242,388 -243,551 0,84 19,160 51,219 27,48 63,85 102,104 39,18 87,21 139,4l10 -3c165,-62 117,-267 92,-374l-2 -11c-38,-163 -59,-277 111,-374 10,-6 20,-11 31,-15 75,-32 156,-26 235,18 47,26 120,87 194,173 63,72 135,169 200,282l8 16c211,372 369,934 48,1517 -132,239 -328,424 -557,556 -270,154 -591,235 -909,240l-1 0c-318,5 -638,-66 -906,-214 -218,-120 -404,-291 -530,-512 -534,-931 184,-1942 448,-2314l28 -40 0 0c105,-149 226,-386 302,-634 56,-183 86,-369 63,-520 -20,-137 74,-265 211,-285 80,-12 157,16 212,68zm289 1217c94,-106 -69,-322 -251,-509 -13,58 -29,116 -46,174 -93,302 -241,593 -371,777l0 0 -1 1 -29 41c-214,301 -796,1121 -420,1775 78,138 196,245 336,322 192,106 423,156 657,153l2 0c234,-3 470,-62 667,-175 153,-88 283,-209 367,-362 155,-281 139,-561 63,-792 -69,109 -186,206 -377,272l-15 6c-184,61 -360,46 -512,-26 -136,-65 -249,-175 -326,-315 -72,-130 -112,-288 -112,-460 1,-274 108,-589 368,-882z"/>
  <path class="fil2" d="M2187 535c0,0 1013,794 651,1202 -606,684 -206,1455 316,1281 523,-174 201,-750 256,-782 55,-32 846,792 372,1653 -475,861 -1992,894 -2466,67 -475,-828 253,-1788 463,-2086 210,-298 474,-905 408,-1335z"/>
 </g>
</svg>
