<?xml version="1.0" encoding="UTF-8"?>
<!DOCTYPE svg PUBLIC "-//W3C//DTD SVG 1.1//EN" "http://www.w3.org/Graphics/SVG/1.1/DTD/svg11.dtd">
<!-- Creator: CorelDRAW X7 -->
<svg xmlns="http://www.w3.org/2000/svg" xml:space="preserve" width="302px" height="195px" version="1.1" style="shape-rendering:geometricPrecision; text-rendering:geometricPrecision; image-rendering:optimizeQuality; fill-rule:evenodd; clip-rule:evenodd"
viewBox="0 0 103378 66602"
 xmlns:xlink="http://www.w3.org/1999/xlink">
 <defs>
  <style type="text/css">
   <![CDATA[
    .fil1 {fill:#FEFEFE}
    .fil4 {fill:#E6E7E8}
    .fil3 {fill:url(#id4)}
    .fil2 {fill:url(#id5)}
    .fil0 {fill:url(#id6)}
   ]]>
  </style>
    <mask id="id0">
  <linearGradient id="id1" gradientUnits="userSpaceOnUse" x1="26460.4" y1="13334" x2="27722.9" y2="38989.2">
   <stop offset="0" style="stop-opacity:0.301961; stop-color:white"/>
   <stop offset="0.239216" style="stop-opacity:-40.3137; stop-color:white"/>
   <stop offset="1" style="stop-opacity:0; stop-color:white"/>
  </linearGradient>
     <rect style="fill:url(#id1)" x="15545" y="11744" width="23093" height="28835"/>
    </mask>
    <mask id="id2">
  <linearGradient id="id3" gradientUnits="userSpaceOnUse" x1="28390.5" y1="2981.65" x2="28390.5" y2="14555.3">
   <stop offset="0" style="stop-opacity:0.301961; stop-color:white"/>
   <stop offset="0.309804" style="stop-opacity:-40.3137; stop-color:white"/>
   <stop offset="1" style="stop-opacity:0; stop-color:white"/>
  </linearGradient>
     <rect style="fill:url(#id3)" width="56781" height="17536"/>
    </mask>
  <radialGradient id="id4" gradientUnits="userSpaceOnUse" gradientTransform="matrix(0.241221 2.09908 -2.60488 0.824731 59352 -66891)" cx="32967.7" cy="13181.8" r="17207.4" fx="32967.7" fy="13181.8">
   <stop offset="0" style="stop-opacity:1; stop-color:#ED5250"/>
   <stop offset="1" style="stop-opacity:1; stop-color:#C1185A"/>
  </radialGradient>
  <radialGradient id="id5" gradientUnits="userSpaceOnUse" gradientTransform="matrix(1.48125 0.825509 -0.823757 1.28421 -1128 -40532)" cx="41269.3" cy="22741.4" r="27822.6" fx="41269.3" fy="22741.4">
   <stop offset="0" style="stop-opacity:1; stop-color:#FA5F5C"/>
   <stop offset="0.219608" style="stop-opacity:1; stop-color:#EA4E51"/>
   <stop offset="1" style="stop-opacity:1; stop-color:#C1185A"/>
  </radialGradient>
  <radialGradient id="id6" gradientUnits="userSpaceOnUse" gradientTransform="matrix(-0.136125 1.3473 -1.77981 -0.164019 34072 -38223)" xlink:href="#id4" cx="28946.2" cy="666.357" r="20675.7" fx="28946.2" fy="666.357">
  </radialGradient>
 </defs>
 <g id="Layer_x0020_2">
  <metadata id="CorelCorpID_0Corel-Layer"/>
  <g id="_624445056">
   <path class="fil0" d="M0 17537c27305,-53357 90916,30736 103378,44901 0,0 -45320,12322 -71425,-5429 -26106,-17752 -11904,-39472 -31953,-39472z"/>
   <path class="fil1" d="M48243 23803c3171,0 6042,1289 8118,3368 2077,2079 3368,4951 3368,8124 0,3172 -1291,6045 -3368,8121 -2076,2076 -4950,3360 -8118,3360 -3175,0 -6049,-1284 -8126,-3360 -2077,-2077 -3361,-4949 -3361,-8121 0,-3173 1284,-6044 3361,-8124 2077,-2078 4955,-3368 8126,-3368z"/>
   <circle class="fil1" cx="16081" cy="11272" r="2088"/>
   <path class="fil2" d="M15901 37362c2422,6255 6589,13211 16052,19647 26105,17751 71425,5429 71425,5429 -6278,-7136 -25538,-32019 -46597,-48136 -14387,-9709 -40249,3857 -40880,23060zm20855 -2072c0,-6344 5143,-11487 11487,-11487 6343,0 11486,5143 11486,11487 0,6344 -5143,11486 -11486,11486 -6344,0 -11487,-5142 -11487,-11486z"/>
   <path class="fil3" d="M38028 40549c-712,-1378 -1151,-2919 -1251,-4552 -650,-2998 -992,-6110 -992,-9302 0,-5119 880,-10031 2497,-14595 -11371,3115 -21979,13048 -22381,25262 2422,6255 6589,13211 16052,19647 8357,5682 18682,8283 28860,9193 -10682,-5052 -18987,-14308 -22779,-25632 -3,-7 -6,-13 -6,-21z"/>
   <path class="fil1" style="mask:url(#id0)" d="M15901 37362c0,0 917,2107 1221,2861 957,-6784 5149,-21897 21128,-28033 11,-30 22,-60 32,-90 -11371,3115 -21979,13048 -22381,25262z"/>
   <path class="fil1" style="mask:url(#id2)" d="M22868 1278c11864,0 21527,6122 27762,10370 2192,513 4270,1385 6151,2654 -20743,-15874 -43232,-23242 -56781,3235 0,0 9210,-16259 22868,-16259z"/>
   <path class="fil4" d="M41178 41801c-2346,-2346 -3797,-5591 -3797,-9175 0,-421 19,-837 59,-1247 -442,1221 -684,2538 -684,3911 0,1 0,3 0,5 0,236 7,469 21,702 100,1633 539,3173 1251,4552 1908,3698 5766,6227 10215,6227 2309,0 4459,-681 6262,-1855 -1303,439 -2698,677 -4147,677 -3587,0 -6834,-1451 -9180,-3797z"/>
   <path class="fil4" d="M13993 11272c0,1153 935,2088 2088,2088 742,0 1394,-387 1764,-971 -374,350 -876,565 -1428,565 -1153,0 -2087,-935 -2087,-2088 0,-411 118,-794 323,-1117 -406,380 -660,922 -660,1523z"/>
  </g>
 </g>
</svg>
