<?xml version="1.0" encoding="UTF-8"?>
<!DOCTYPE svg PUBLIC "-//W3C//DTD SVG 1.1//EN" "http://www.w3.org/Graphics/SVG/1.1/DTD/svg11.dtd">
<!-- Creator: CorelDRAW X7 -->
<svg xmlns="http://www.w3.org/2000/svg" xml:space="preserve" width="136px" height="136px" version="1.1" style="shape-rendering:geometricPrecision; text-rendering:geometricPrecision; image-rendering:optimizeQuality; fill-rule:evenodd; clip-rule:evenodd"
viewBox="0 0 32696 32696"
 xmlns:xlink="http://www.w3.org/1999/xlink">
 <defs>
  <style type="text/css">
   <![CDATA[
    .str0 {stroke:#D71A60;stroke-width:962.85;stroke-linecap:round;stroke-linejoin:round}
    .fil2 {fill:none}
    .fil0 {fill:#CCCCCC}
    .fil1 {fill:#D71A60}
   ]]>
  </style>
 </defs>
 <g id="Layer_x0020_2">
  <metadata id="CorelCorpID_0Corel-Layer"/>
  <path class="fil0" d="M18944 26438c-680,0 -1477,783 -1769,1485 -227,549 -159,1061 186,1406 326,325 809,512 1325,512 517,0 1000,-187 1325,-512 362,-362 451,-894 249,-1497 -136,-408 -405,-839 -719,-1152 -156,-156 -367,-242 -597,-242zm297 2120c-242,242 -871,235 -1106,6 -8,-23 -7,-159 137,-398 188,-310 453,-529 597,-608 155,184 289,414 357,619 61,180 66,330 15,381z"/>
  <path class="fil1" d="M5432 13754c218,0 423,-131 508,-345 110,-281 -28,-597 -308,-707 -1403,-553 -2524,-1675 -3076,-3078 -110,-280 -425,-418 -707,-308 -280,110 -418,427 -307,707 662,1683 2007,3030 3691,3693 66,26 133,38 199,38z"/>
  <path class="fil0" d="M25065 18811c-158,45 -373,107 -430,111 -754,0 -1231,583 -1579,1009 -134,163 -392,466 -527,458 -246,-123 -505,-185 -769,-185 -642,0 -1199,382 -1323,909 -88,371 41,879 665,1190 885,443 1800,900 2207,1307 280,280 765,441 1330,441 858,0 1999,-417 2391,-1593 155,-463 525,-817 883,-1160 415,-397 808,-773 813,-1312 4,-318 -137,-623 -418,-904 -383,-383 -905,-577 -1551,-577 -620,0 -1240,177 -1692,306zm2572 1160c-26,107 -298,367 -478,540 -411,394 -923,884 -1163,1603 -269,807 -1178,847 -1357,847 -318,0 -517,-84 -559,-121 -533,-533 -1483,-1008 -2491,-1511 -2,-2 -3,-2 -6,-3 103,-42 293,-45 459,38 176,88 357,133 537,133 603,0 984,-466 1320,-876 246,-299 498,-609 736,-609 193,0 418,-64 729,-153 412,-118 926,-264 1393,-264 352,0 607,84 780,257 75,77 96,119 100,119z"/>
  <path class="fil1" d="M7085 11951l0 2762c0,301 244,545 545,545 301,0 545,-244 545,-545l-1 -2762c1968,-247 3530,-1809 3777,-3777l2762 0c301,0 545,-244 545,-545 0,-301 -244,-545 -545,-545l-2762 0c-248,-1968 -1809,-3529 -3777,-3776l0 -2763c0,-301 -244,-545 -545,-545 -301,0 -545,244 -545,545l0 2763c-1968,247 -3529,1808 -3777,3776l-2762 0c-301,0 -545,244 -545,545 0,301 244,545 545,545l2762 0c247,1968 1809,3530 3778,3777zm544 -7591c1803,0 3269,1466 3269,3269 0,1803 -1465,3268 -3266,3270 -1,0 -2,-1 -2,-1 -1,0 -1,1 -3,1 -1802,-1 -3267,-1467 -3267,-3270 0,-1803 1466,-3269 3269,-3269z"/>
  <path class="fil0" d="M32561 16567c-42,-299 -321,-506 -615,-466 -298,42 -506,317 -465,615 83,599 125,1209 125,1812 0,7159 -5782,12992 -12921,13077 -1938,-1238 -3755,-2754 -2945,-4642 1453,-3391 101,-4654 -477,-5195l-108 -103c-166,-164 -352,-276 -516,-375 -399,-240 -506,-304 -292,-946 142,-427 330,-626 548,-856 503,-533 889,-1063 889,-2605 0,-896 -455,-1612 -1249,-1962 -899,-399 -2101,-258 -2736,319 -397,361 -530,852 -366,1346 389,1163 -499,2845 -2158,4089 -439,329 -570,178 -648,88 -487,-561 -449,-2155 -50,-2554 268,-268 347,-610 213,-914 -442,-1001 -3258,-924 -3816,-898 -23,2 -42,13 -64,17 -33,5 -65,12 -97,24 -37,14 -70,31 -102,52 -26,16 -50,33 -72,53 -29,27 -53,55 -76,86 -19,27 -35,52 -49,82 -17,33 -27,68 -36,106 -5,21 -17,37 -20,58 -69,564 -98,1058 -98,1653 0,6533 4424,12189 10758,13754 44,11 88,16 131,16 244,0 467,-166 528,-414 73,-293 -106,-588 -398,-660 -5847,-1444 -9930,-6666 -9930,-12696 0,-378 14,-712 43,-1052 920,-3 1705,104 2104,226 -625,976 -557,2895 207,3776 548,631 1343,657 2126,69 2093,-1570 3090,-3653 2538,-5305 -18,-54 -35,-105 65,-196 286,-260 1016,-371 1563,-129 403,178 599,495 599,966 0,1230 -248,1493 -591,1856 -255,270 -572,605 -790,1260 -490,1472 295,1944 765,2226 122,73 236,141 306,211 40,39 85,82 134,128 480,449 1372,1283 220,3970 -1306,3046 2061,5170 3499,6078 87,54 188,84 291,84 7812,0 14168,-6356 14168,-14168 0,-653 -46,-1313 -135,-1961z"/>
  <path class="fil0" d="M15623 5840c924,-242 2314,-391 2905,-391 925,0 1845,97 2741,288 -20,784 318,1322 536,1668 60,95 143,226 153,244 0,1955 -400,2272 -395,2274 -884,0 -2333,789 -2878,1806 -335,625 -308,1285 76,1860 262,394 488,832 708,1256 463,897 977,1892 1783,1892 171,0 356,-45 555,-144 635,-318 1091,-1221 1531,-2095 194,-385 479,-949 648,-1128 553,75 823,575 1189,1368 269,583 548,1185 1094,1458 922,460 3950,-21 5623,-732 23,-9 38,-28 59,-40 32,-19 62,-37 89,-61 27,-24 47,-51 68,-78 21,-28 41,-55 56,-86 16,-32 24,-64 33,-99 9,-33 18,-65 20,-100 2,-36 -2,-72 -7,-109 -3,-24 2,-47 -5,-71 -1144,-4228 -4250,-7746 -8311,-9408 -279,-114 -597,19 -711,297 -114,279 20,597 298,711 3596,1473 6378,4523 7530,8215 -1695,597 -3868,778 -4254,587 -205,-103 -411,-548 -592,-941 -380,-823 -901,-1950 -2229,-2009 -689,-32 -1074,749 -1571,1736 -292,579 -733,1454 -1084,1627 -203,-49 -604,-826 -844,-1290 -222,-430 -473,-916 -769,-1360 -161,-241 -168,-470 -22,-742 374,-698 1497,-1230 1917,-1230 985,0 1485,-1132 1485,-3364 0,-317 -163,-575 -321,-825 -230,-366 -468,-745 -327,-1391 62,-287 -114,-572 -399,-645 -1129,-284 -2298,-428 -3473,-428 -735,0 -2222,174 -3181,426 -292,77 -465,374 -389,665 76,291 373,467 665,389z"/>
  <path class="fil1" d="M12710 9604c-550,1412 -1672,2540 -3081,3096 -280,111 -417,427 -307,707 85,215 290,345 508,345 66,0 133,-12 199,-38 1690,-667 3037,-2021 3697,-3715 109,-280 -30,-596 -310,-705 -281,-110 -597,30 -706,310z"/>
  <path class="fil1" d="M1851 5937c66,26 133,38 200,38 217,0 422,-131 507,-345 551,-1395 1666,-2514 3061,-3067 280,-112 417,-428 305,-708 -110,-279 -427,-416 -707,-305 -1674,664 -3012,2006 -3673,3680 -110,280 27,596 307,707z"/>
  <path class="fil1" d="M9638 2563c1406,557 2526,1686 3073,3096 83,215 289,348 508,348 65,0 132,-12 197,-37 280,-109 420,-425 311,-705 -656,-1692 -2000,-3046 -3686,-3716 -281,-111 -597,26 -708,306 -111,280 26,596 305,708z"/>
  <line class="fil2 str0" x1="8899" y1="6359" x2="6359" y2= "8899" />
  <line class="fil2 str0" x1="6358" y1="6359" x2="8899" y2= "8899" />
 </g>
</svg>
