<?xml version="1.0" encoding="UTF-8"?>
<!DOCTYPE svg PUBLIC "-//W3C//DTD SVG 1.1//EN" "http://www.w3.org/Graphics/SVG/1.1/DTD/svg11.dtd">
<!-- Creator: CorelDRAW X7 -->
<svg xmlns="http://www.w3.org/2000/svg" xml:space="preserve" width="5in" height="5in" version="1.1" style="shape-rendering:geometricPrecision; text-rendering:geometricPrecision; image-rendering:optimizeQuality; fill-rule:evenodd; clip-rule:evenodd"
viewBox="0 0 979 979"
 xmlns:xlink="http://www.w3.org/1999/xlink">
 <defs>
  <style type="text/css">
   <![CDATA[
    .fil0 {fill:none}
    .fil2 {fill:#CCCCCC}
    .fil1 {fill:#D71A60}
   ]]>
  </style>
 </defs>
 <g id="Layer_x0020_2">
  <metadata id="CorelCorpID_0Corel-Layer"/>
  <rect class="fil0" width="979" height="979"/>
  <g id="_2399878543216">
   <g>
    <path class="fil1" d="M367 167l-57 0 -19 -62c-2,-5 -7,-9 -13,-9l-90 0c-5,0 -11,4 -12,9l-20 62 -57 0c-7,0 -13,6 -13,14 0,7 6,13 13,13l46 0c-4,10 -6,21 -6,31 0,52 42,94 94,94 52,0 94,-42 94,-94 0,-10 -2,-21 -5,-31l45 0c8,0 14,-6 14,-13 0,-8 -6,-14 -14,-14zm-169 -44l70 0 14 44 -98 0 14 -44zm35 169c-37,0 -67,-30 -67,-67 0,-11 3,-21 8,-31l118 0c5,10 8,20 8,31 0,37 -30,67 -67,67z"/>
   </g>
  </g>
  <path class="fil2" d="M697 678c-94,-15 -190,11 -263,71l0 44 500 0c7,0 13,-6 13,-14 0,-7 -6,-13 -13,-13l-318 0c27,-24 56,-45 88,-62l3 -1c69,-37 146,-56 227,-56 7,0 13,-6 13,-14 0,-7 -6,-13 -13,-13 -84,0 -165,20 -237,58zm-40 23c-29,18 -56,40 -81,65l-120 0c57,-46 129,-69 201,-65z"/>
  <path class="fil2" d="M407 766l-67 0c-7,0 -13,6 -13,13 0,8 6,14 13,14l67 0 0 -27z"/>
  <path class="fil2" d="M273 793l0 -27 -40 0c-7,0 -13,6 -13,13 0,8 6,14 13,14l40 0z"/>
  <path class="fil2" d="M166 793l0 -27 -120 0c-8,0 -14,6 -14,13 0,8 6,14 14,14l108 0 12 0z"/>
  <path class="fil2" d="M786 291l0 41c0,8 6,14 14,14 7,0 13,-6 13,-14l0 -41c16,-2 30,-8 43,-17l29 29c2,2 6,4 9,4 4,0 7,-2 10,-4 5,-6 5,-14 0,-19l-29 -29c9,-13 15,-27 17,-43l42 0c7,0 13,-6 13,-14 0,-7 -6,-13 -13,-13l-42 0c-2,-16 -8,-30 -17,-43l29 -29c5,-5 5,-14 0,-19 -6,-5 -14,-5 -19,0l-29 29c-13,-9 -27,-15 -43,-17l0 -42c0,-7 -6,-13 -13,-13 -8,0 -14,6 -14,13l0 42c-16,2 -30,8 -43,17l-29 -29c-5,-5 -13,-5 -19,0 -5,5 -5,14 0,19l29 29c-9,13 -15,27 -17,43l-41 0c-8,0 -14,6 -14,13 0,8 6,14 14,14l41 0c2,16 8,30 17,43l-29 29c-5,5 -5,13 0,19 3,2 6,4 10,4 3,0 7,-2 9,-4l29 -29c13,9 27,15 43,17zm13 -26c-36,0 -66,-30 -66,-67 0,-36 30,-67 66,-67 37,0 67,31 67,67 0,37 -30,67 -67,67z"/>
  <path class="fil1" d="M434 795l0 -355c0,-8 -6,-14 -13,-14 -8,0 -14,6 -14,14l0 40 -7 0c-25,0 -49,-4 -73,-11l0 -74c0,-27 -22,-49 -49,-49l-90 0c-12,0 -24,5 -33,13 -12,-19 -32,-31 -56,-31 -37,0 -67,30 -67,67l0 125c0,37 30,67 67,67l41 0c3,20 12,38 26,52l0 127 -12 27 -66 98c-1,3 -2,5 -2,8l0 53c0,8 6,14 13,14 8,0 14,-6 14,-14l0 -49 78 -116c0,-1 0,-1 1,-2 0,0 0,0 0,0 0,-1 1,-2 1,-4 0,0 0,0 0,0 0,-1 0,-1 0,-2l0 -121c12,6 26,9 40,9 15,0 28,-3 40,-9l0 78 0 30 0 27 0 31 0 111c0,5 4,10 9,12l54 18c1,1 3,1 4,1 6,0 11,-4 13,-9 2,-7 -1,-15 -8,-17l-45 -15 0 -286c17,-16 27,-39 27,-65l0 -41c0,-8 -6,-14 -13,-14 -8,0 -14,6 -14,14l0 27 -134 0 0 -165c0,-12 10,-22 22,-22l90 0c12,0 22,10 22,22l0 65c-31,-13 -60,-32 -84,-57 -5,-5 -14,-5 -19,0 -5,6 -5,14 0,19 54,55 127,85 203,85l7 0 0 224 0 35 0 27 0 34 0 125c0,8 6,14 14,14 7,0 13,-6 13,-14l0 -222c0,35 0,138 0,65zm-295 -235l-40 0c-22,0 -40,-18 -40,-40l0 -31 13 0c8,0 14,-6 14,-14 0,-7 -6,-13 -14,-13l-13 0 0 -27 80 0 0 125zm0 -152l-80 0 0 -13c0,-22 18,-40 40,-40 22,0 40,18 40,40l0 13zm160 179c-3,14 -10,27 -20,36 -1,0 -1,1 -2,1 -12,11 -27,17 -44,17 -17,0 -32,-6 -44,-17 0,0 -1,-1 -1,-1 -11,-9 -18,-22 -21,-36l132 0z"/>
  <path class="fil1" d="M382 55c0,-7 2,-13 6,-20 4,-6 10,-11 18,-16 8,-4 17,-6 27,-6 9,0 18,2 25,5 8,4 13,9 17,15 4,6 6,13 6,20 0,5 -1,10 -3,14 -3,5 -5,8 -8,11 -3,3 -9,9 -17,16 -2,2 -4,4 -6,5 -1,2 -2,3 -3,4 0,2 -1,3 -1,4 -1,2 -1,4 -2,7 -1,7 -5,10 -12,10 -3,0 -6,-1 -8,-3 -3,-2 -4,-6 -4,-10 0,-6 1,-10 3,-14 2,-4 4,-8 7,-11 2,-3 6,-7 11,-11 4,-4 7,-6 9,-8 2,-2 4,-4 5,-7 1,-2 2,-4 2,-7 0,-5 -2,-10 -6,-14 -4,-3 -9,-5 -15,-5 -7,0 -13,2 -16,6 -4,3 -6,9 -9,16 -2,7 -6,11 -13,11 -3,0 -6,-1 -9,-4 -3,-3 -4,-5 -4,-8zm48 108c-4,0 -7,-1 -10,-4 -3,-3 -5,-6 -5,-11 0,-4 2,-8 5,-10 3,-3 6,-5 10,-5 5,0 8,2 11,5 3,2 4,6 4,10 0,5 -1,8 -4,11 -3,3 -7,4 -11,4z"/>
 </g>
</svg>
