<?xml version="1.0" encoding="UTF-8"?>
<!DOCTYPE svg PUBLIC "-//W3C//DTD SVG 1.1//EN" "http://www.w3.org/Graphics/SVG/1.1/DTD/svg11.dtd">
<!-- Creator: CorelDRAW X7 -->
<svg xmlns="http://www.w3.org/2000/svg" xml:space="preserve" width="12px" height="14px" version="1.1" style="shape-rendering:geometricPrecision; text-rendering:geometricPrecision; image-rendering:optimizeQuality; fill-rule:evenodd; clip-rule:evenodd"
viewBox="0 0 650 813"
 xmlns:xlink="http://www.w3.org/1999/xlink">
 <defs>
  <style type="text/css">
   <![CDATA[
    .fil1 {fill:#FFCBD1}
    .fil0 {fill:#F34236;fill-rule:nonzero}
   ]]>
  </style>
 </defs>
 <g id="Layer_x0020_2">
  <metadata id="CorelCorpID_0Corel-Layer"/>
  <g>
   <path class="fil0" d="M325 0c90,0 171,36 230,95 59,59 95,140 95,230 0,128 -94,259 -171,364 -18,25 -35,49 -46,65 -12,19 -28,33 -47,44l-1 0 0 0c-18,10 -39,15 -62,15 -22,0 -43,-6 -62,-16l-1 -1c-18,-10 -34,-25 -45,-42 -15,-22 -29,-43 -45,-65l-3 -5c-74,-105 -167,-237 -167,-359 0,-89 36,-171 95,-229l1 -1 1 -1c59,-58 139,-94 228,-94zm17 590c19,-25 38,-52 57,-80 -23,9 -48,14 -74,14 -26,0 -51,-5 -74,-14 18,26 36,52 53,77l4 4 16 24 18 -25zm-82 206c-19,-11 -32,-28 -38,-47l38 47zm86 -492c-5,-5 -13,-8 -21,-8 -8,0 -15,3 -21,8 -5,5 -8,13 -8,21 0,8 3,16 8,21 6,5 13,9 21,9 8,0 16,-4 21,-9 5,-5 9,-13 9,-21 0,-8 -4,-16 -9,-21z"/>
  </g>
  <path class="fil1" d="M325 85c133,0 241,107 241,240 0,127 -135,280 -203,383 -9,13 -23,20 -39,20 -16,0 -30,-7 -39,-21 -65,-99 -200,-260 -200,-382 0,-133 107,-240 240,-240zm0 126c63,0 114,51 114,114 0,63 -51,114 -114,114 -63,0 -114,-51 -114,-114 0,-63 51,-114 114,-114z"/>
 </g>
</svg>
